<?xml version="1.0" encoding="UTF-8"?>
<svg width="32" height="32" version="1.1" viewBox="0 0 32 32" xmlns="http://www.w3.org/2000/svg">
    <path
        d="m4.6863 4.6863c4.6863-4.6863 17.941-4.6863 22.627 2e-7s4.6863 17.941 0 22.627c-4.6863 4.6863-17.941 4.6863-22.627 0-4.6863-4.6863-4.6863-17.941 3e-7 -22.627z" />
</svg>